{
  "GameList": [
    {
      "gameName": "FlippyBottle",
      "bundleId": "com.mostplayed.flippybottle",
      "appId": "1157626939",
      "tag": -1
    },
    {
      "gameName": "TrickyPong",
      "bundleId": "com.mostplayed.trickypong",
      "appId": "1268518405",
      "tag": -1
    },
    {
      "gameName": "CleanGo",
      "bundleId": "com.mostplayed.cleanaf",
      "appId": "1467274763",
      "tag": -1
    },
    {
      "gameName": "ShootyBasket",
      "bundleId": "com.mostplayed.shootybasketball",
      "appId": "1391304279",
      "tag": -1
    },
    {
      "gameName": "MostPlayedEgg",
      "bundleId": "com.mostplayed.mostdownloadedegg",
      "appId": "",
      "tag": -1
    },
    {
      "gameName": "FlippyBottleClassic",
      "bundleId": "com.mostplayed.flippybottleclassic",
      "appId": "",
      "tag": 0
    },
    {
      "gameName": "ChicksDigIt",
      "bundleId": "com.mostplayed.chicksdigit",
      "appId": "1421759186",
      "tag": -1
    },
    {
      "gameName": "FlippyBird",
      "bundleId": "com.mostplayed.flippybird",
      "appId": "1355743861",
      "tag": -1
    },
    {
      "gameName": "MakeTusok",
      "bundleId": "com.mostplayed.maketusok",
      "appId": "1136156062",
      "tag": -1
    },
    {
      "gameName": "KickTheCan",
      "bundleId": "com.mostplayed.kickycan",
      "appId": "1214538613",
      "tag": -1
    },
    {
      "gameName": "ZeroJumps",
      "bundleId": "com.mostplayed.zerojumps",
      "appId": "1461153550",
      "tag": -1
    },
    {
      "gameName": "ImpossibleSoccer",
      "bundleId": "com.mostplayed.footgoal",
      "appId": "1413660587",
      "tag": -1
    },
    {
      "gameName": "MasterShaker",
      "bundleId": "com.mostplayed.mastershaker",
      "appId": "",
      "tag": -1
    },
    {
      "gameName": "SkyPhone",
      "bundleId": "com.mostplayed.skyphone",
      "appId": "1281110812",
      "tag": -1
    },
    {
      "gameName": "MakePana",
      "bundleId": "com.mostplayed.archereagle",
      "appId": "1119208392",
      "tag": -1
    },
    {
      "gameName": "MakeTuka",
      "bundleId": "com.mostplayed.maketuka",
      "appId": "1126914955",
      "tag": -1
    },
    {
      "gameName": "FlippyKicks",
      "bundleId": "com.mostplayed.flippykicks",
      "appId": "",
      "tag": -1
    },
    {
      "gameName": "CompleteMeme",
      "bundleId": "com.mostplayed.guessthememe",
      "appId": "",
      "tag": -1
    }
  ]
}

// 0 - FEATURE
// 1 - NEW GAME
// 2 - DOWNLOAD
// 3 - COMING SOON
